Ph [id32433390|Наталья Агапова] Ph [id24612434|Анна Гис] Ph [id22918816|Артём Кыштымов] Ph [id444224241|Alexander Drobkov ] Ph [id154632736|Кирилл Василенко] Ph [id64948722|Екатерина Ромакина] Автор: [id84126142|Михаил Базаров] Отличный курс по обработке фотографий! Рекомендуем!💘😍 Ph [id256424956|Алеся Корнеевец] Ph [id17608164|Ольга Ниа] Ph: [id333559116|Юлия Сказка] Фотограф: [id248435801|Оксана Староверова]
Модель: [id144217423|Мария Федотова] 
Визажист: [id39958710|Вера Чу]
Стилист: [id1315137|Екатерина Кучерова]
Маска: [id24789938|Ирина Касс] Ph: [id18315764|Павел Возмищев] ph: [id439327717|Kate Vox] 
md: [id501583857|Виктория Алексеева] 
mua: [id1716855|Анюта Сченстная] Ph [id355099742|Лена Дорри] Ph: [id283106131|Стас Хачатрян] Ph strangertonez Ph. [id363964965|Tamara Nenasheva] ph [id105210757|Ульяна Найденкова] Ph: [id333559116|Юлия Сказка] Ph [id13941571|Дмитрий Левыкин]
Md, dress [id549782|Анастасия Надёжина] Ph: Александр Смит Отличный курс по обработке фотографий! Рекомендуем!💘😍 Ph [id15305193|Игорь Подолян] Ph: Ефанова Елена Ph [id63713374|Олег Наумов]
Md [id41506347|Екатерина Макарова] Автор - [id38045897|Илья Воробьев] Ph: [id63713374|Олег Наумов] 
Md: [id362024756|Александра Собкина] Ph: [id66128503|Алексей Гилёв] Автор [id3154984|Иришка Голомако] Katya Mirо Автор - [id35247197|Владислав Молочный] Ph Joseph Degbadjo Ph [id55751069|Геннадий Спиридонов] Ph Karen Kananian Ph: [club51014086|Ксения Чадунели] Ph: [id408710194|Александр Абрамов] Ph: [id30375728|Sergey Romanenko] ph [id372828940|Нина Голик] Ph: [id11663203| A.Strelkovv] ph [id258407245|Александра Вольф] Ph [id50906331|Михаилъ Полетъ] 
Md [id497968880|Alesia Selina] Ph: [id1290842|Макс Пыжик]
Md: [id8767544|Юлия Прокофьева] Отличный курс по обработке фотографий! Рекомендуем!💘😍 Ph [club166021775|Growthunose] 
Md [id477633977|Аиша] Ph [id13941571|Дмитрий Левыкин]
Мd, costume [id549782|Анастасия Надёжина] ph: [id439327717|Kate Vox] 
md: [id14804030|Анна Бесараб] 
mua: [id241405173|Татьяна Бузаджи] Ph: [id9229338|Анатолий TT Комиссаров] 
Md: [id143198365|Анастасия Архипова] Ph: [id388992974|Марина Морская] Фотограф: [id410194208|Ingvar art] Ph: [id141370562|Сергей Кузичев] 
Md: [id151179406|Anastasia Grin] Ph: [id15834689|Станислав Зайцев]  Автор - [id38045897|Илья Воробьев] Ph: [id177100320|Юрий Несмелов] Ph [id167810448|Ольга Красильникова] 
Md [id12993906|Юн Ли] Ph: [id367556407|Aleks Five] ph: [id439327717|Kate Vox] 
md: [id129521140|Светлана Прихожева] 
mua: [id241405173|Татьяна Бузаджи] PH: [id4952188|Николай Сироткин] Отличный курс по обработке фотографий! Рекомендуем!💘😍 Ph [id139812917|Anna Bunski] Ph: [id152341736|Елена Фукс] Ph: [id333559116|Юлия Сказка] Ph: Kirill Layht Фотограф: Нина Цыбок Ph: [id38045897|Илья Воробьев] Ph: [id77770139|Никита Егоров] ph: [id328718822|Владимир Сидоренков] 
md: [id2349531|Kseniia Frolova] Ph: [id495685749|Кит Майер]
Md: [id97665380|Алиса Фролова] Ph: [id152054264|Олег Зиньковский] Ph: Кузнецова Анастасия ph [club26925785|Андрей Чилов] Photographer: [id30375728|Sergey Romanenko] Ph: [id482253625|Tanya Koretskaya]  Ph: [id15834689|Станислав Зайцев] Ph:Стас Хачатрян Отличный курс по обработке фотографий! Рекомендуем!💘😍 Ph: [id32968855|Pavel Fishar]  ph: [id20398721|Ксения Чистякова]
muah: [id142860635|Lana Lion] Ph [id46079811|Анна Тукачева] Ph: [id22718436|Сергеев Сергей] Ph: [id87519942|Гегам Дерцян]
Место: Кавказ, Домбай, Теберда ph: [club104923238|pékov_ph] Ph: [club128108435|Марат Сафин] Ph [id167810448|Ольга Красильникова] 
Md [id264489803|Мария Мартиянова] Photographer: [id30375728|Sergey Romanenko] Ph: [id22918816|Артём Кыштымов]
Md: [id405800746|Катерина Шевчук] Фотограф: [id11264606|Иван Кочергин] Ph: Ксения Пальцева Фотограф: [id5952509|Евгений Терновецкий] 
Визажист: [id7869148|Юля Сахацкая] 
Модель: [id148728355|Маша Сидорова] Ph [id13941571|Дмитрий Левыкин] 
Мd, costume [id549782| Анастасия Надёжина] ph: [id439327717|Kate Vox] 
md: [id39388964|Дарья Ануфрак] Ph [id18315764|Павел Возмищев] Фотограф [id12632141|Александр Борисов] Ph: [club52350877|Руся] Отличный курс по обработке фотографий! Рекомендуем!💘😍 Автор - [id38045897|Илья Воробьев] Ph: [id77770139|Никита Егоров]
Md: [id434491051|Violetta Zhuñko] 