[id374956266|Someone else has already expressed all your thoughts, better than you.] 

Mar/18 [id14278000|By stories it was all, but you were late] 

May/18 [id152108042|"..It's not every day a virgin conceives and bears a son."] 

May/18 [id111449572|Not yours, so you're angry] 

Apr/18 [id14278000|1000 years from now, there'll be no guys and no girls, just wankers.] 

Apr/18 [id107913308|You so young and beautiful] 

Apr/18  [id91851637|In another moment down went Alice after it, never once considering how in the world she was to get again] 

with [id233749851|Bob] 
Apr/18   [id30433272|higher lower] 

mar/18 [id95772857|In search of treasure] 

Nov/16 [id100674975|Concrete box] 

Aug/17 [id28701360|In anticipation of warm] 

Nov/17 [id62688875|General Concepts] 

with [id224649650|Drago Kun]
 
Nov/17 [id315136944|Spirit Of The City] 

Sep/17  [id14278000|silence inside] 

Jan/18 [id142215842|Vacuum] 

Jan/18 [id136281644|Bravery and stupidity] 

Nov/17 [id299723106|Black & Gold] 

Dec/17 [id100674975|Mom, It's Rock'n'Roll, Rock is Me] 

Jul/17 [id79647158|Burn but do not burn]

Sep/17 [id374956266|You either run from things or you face them.]

Dec/17 illogical sequence [id14278000|We used to read pornography. Now it was the Horchow Collection.] 

Dec/17    [id100674975|Gestures] 

Aug/17   Upon the look with [id100674975|miss D.] and [id253112102|mister D.]

Aug/17   [id95772857|Spark] 

Jun/17 [id14278000|Evening of expectations] 

Jun/17 [id14453100|History] [id40881778|of two] 

Jun/17 [id144712569|Wave crest] 

Jun/17 [id29659082|Towards the wind]

Jun/17 [id6036035|The soul travels] 

May/17 [id95772857|Sour Cream] 

May/17 [id29489472|Sunny girl] 

Apr/17 [id29659082|Bypassing fear] 

Apr/17 [id68584022|You have those who wait for you here] 

06.23.16 [id51364530|The wind of change]

Apr/17 Despite everything with [id96441925|A] & [id13332507|А] 

Apr/17 Вчера встретил красивейший закат в окружении друзей на Мысе Флотском

apr/17 [id29489472|Everything Happens For A Reason] 

Apr/17 Вантовый мост через Петровский фарватер

Apr/17 [id2349673|Black mercury] 

Apr/17 Спасибо, Питер, удивил ангельским закатом! Спокойной ночи, Петра творенье! [id194453673|Higher Stronger Faster vol.2] 

thank [id19913703|you] [id194453673|Higher Stronger Faster] 

Mar/17 [id47348046|Fire and Ice]

Mar/17 [id96441925|Worship of the sun]

Mar/17 [id29659082|You so young]

Mar/17 Вот и вышла первая пелотная серия Влажного Влога [ВВ]. Да, пока криво-косо, посмотрим что будет дальше. 18+ 

Спасибо [id96441925|Кудику], [id95772857|Маше], [id10579598|Андрею], [id86213835|Лере], [id49637715|Быстрову], [id322778593|Хохлу], [id104063903|Немцу] и [id6036035|Марку] в участии. [id95772857|Run run run] 

Mar/17 Prison breaking

Mar/17 City Of Wine

Mar/17 [id220579638|Fear and do it anyway] 

Jan/17 [id220579638|Викуша :з]  Up your mind

with [id96441925|A]&[id95772857|M] [id111244850|No question] 

Jan/17 Записываемся The Dark City

Moscow
Jan/17 24 with [id22263564|Ilya] and [id1727761|Anna] 

Jan/17 [id25706119|Anna] 

Moscow
Jan/17  Фото с МК в Москве 28 января
Md: [id135842109|Лейла Верховская] 
Md: [id21709768|Viktoria Vishnevetskaya]

Спасибо за помощь в организации [id118736991|Маше] [id50308612|KITANA] 

Jan/17 [id549671|Augusta] 

Jan/17 [id124106404|Вика] 

Jun/17 [id68584022|Восток глаз твоих..] 

Jan/17 [id8520123|White] 

Jan/17 Итак, друзья! Делитесь своими фотографиями с МК 28 января, который проходил в Москве. Ещё раз спасибо всем, кто пришёл, спасибо [id118736991|Маше] за помощь в организации, спасибо нашим замечательным моделям и конечно мне, хы :) Jan/17  [id50308612|Kitana] 

Jan/17 [id134249869|Adel] 

Jun/17 [id92760292|Raspberry] 

Jun/17 [id134249869|A] 

Jan/17 [id95772857|Маша] 

Май/16 Май с [id49409841|Катей] в декабре

2016. Итак подведём итоги розыгрыша:

1 место - [id61650759|Катерина Щуренкова] получает час бесплатной фотосъёмки

2 место - [id161183|Максим Богдан] получает 50% скидку 

3 место - [id111492575|Даша Порожняя] получает скиду 30%
 
Поздравляю победителей конкурса, поздравляю всех с наступающим! :) И спасибо за участие, друзья :) [id230586170|Света] 

Декабрь/16 Вот и вышла вторая и заключительная серия о нашей поездке в Крым. 

Хочется выразить благодарность [id279031107|Паше] и [id20567363|Ильясику] за участие в этом трипе, без вас ребята и вовсе ничего бы не состоялось, а также отдельное спасибо [id92760292|Алине] за её тактические наводки, именно она нас направляла по вылазкам, выводила на моделей, да и в общем поддерживала моральный дух. 

В особенности хочется сказать спасибо нашим моделям, а именно [id114325963|Кристине], [id10974262|Тоне], [id151770639|Свете], [id43757666|Даше] и [id64431258|Наташе], спасибо вам за то время, которое вы нам уделили, нам было очень интересно с вами работать, надеюсь ещё встретимся :) [id128126317|Caramel] 

December/16. Внимание, конкурс!

Нас только что стало 1600! Ребята, спасибо, что вы со мной, особенно тем, кто со мной с первых фотографий, я очень рад, что вам нравится моё творчество, спасибо за то, что следите за тем, что я делаю, мне очень приятно! :) Давайте и я сделаю вам приятно?

Весь декабрь 20% скидка на съёмку, снимаю за 2500 р, записывайтесь!) Мало того давайте устроим конкурс. Победитель, выбранный случайным образом через рандомайзер, получает бесплатный час съёмки у меня, второе место 50% скидки на съёмку, а третье место получает скидку 30%! Для участия в конкурсе конечно же Вам необходимо сделать репост себе на страницу до 25 декабря и вступить в группу, победителей определим 25 декабря в 21:00 :) Удачи, ребята! Дыши...
vol.2

Декабрь, 2016. [id374956266|Lisa] 

October, 2016. Дыши..

Декабрь, 2016. [id141746097|Анна] 

Октябрь, 2016. [id111244850|Влада] 

Сентябрь, 2016.  [id20567363|Брат] 

Сентябрь, 2016. [id374956266|Лиса] 

Август, 2016. 