Мастер-класс "Пасхальный декупаж" 
 
Материалы: вареные яйца (белые), крахмал, вода, кисточка, салфетки, пищевые красители (золотой, серебряный). 
Время работы: от 1 часа (зависит от количества яиц) 
 
Нам нужны салфетки с мелким рисунком. Снимаем два нижних слоя у салфеток и делаем заготовки мотивов - вручную делаем обрывки цветов небольшого размера. Очень люблю эту технику, я ее называю "лоскутная техника".)) 
 
Начинаем распределять мотивы на поверхности яйца. Делаем это с помощью кисточки и воды. Главное постараться разгладить все складочки. 
 
Делаем клейстер из крахмала. Я использовала кукурузный крахмал, но можно и картофельный. 
 
Клейстер варим, как для приклеивания обоев (если кто еще помнит)). Я брала 2 ч.л. крахмала, около 50 мл воды и подогревала в микроволновке - 20 сек - помешать - 20 сек - помешать - 10 сек - помешать - 10 сек - помешать - готово.)) 
 
После того, как все мотивы распределены, хорошо промазать клейстером и оставить сушиться. 
 
Вместо крахмала можно использовать взбитый белок. 
 
После того, как все яйца подсохнут (10-15 мин) - покрываем их декоративным слоем. Для этого в небольшое количество клейстера добавляем пищевой краситель. 
 
Сушить задекорированные яйца лучше на решетке. 
 
Вот такая красота у меня получилась! Шьем, вяжем, вышиваем - делимся мастер-классами в группе 
=========================== 
✂[club173274217|ИДЕИ ДЛЯ РУКОДЕЛИЯ]✂ 
=========================== 
Приглашаем и вас, [club173274217|ВСТУПАЙТЕ]!😘 Вяжем пушистого цыплёнка Куколки. Автор - RNata. Перевод - Юния Филонова

Условные обозначения: 
КА - кольцо амигуруми 
вп/ впп - воздушная петля / вп подъема 
сбн - столбик без накида 
приб - прибавка 
уб - убавка 
проп.Х - пропустить по предыд.ряду указанное количество петель 
 
В описании имеются ссылки на фото. Их вы можете посмотреть в оригинальном описании. 
 
ГОЛОВА: 
1 ряд - 12 вп 
2 ряд - 1 приб во 2-ю петлю от крючка, 9 сбн, 3 сбн в послед.петлю, по другой стороне, 9 сбн, 1 сбн в первую петлю = 24 
3 ряд - 2 приб, 9 сбн, 3 приб, 9 сбн, 1 приб = 30 (фото 1) 
4 ряд - (1 сбн, 1 приб)* 2, 9 сбн, (1 сбн, 1 приб)* 3, 10 сбн, 1 приб = 36 
5 ряд - (2 сбн, 1 приб)* 2, 9 сбн, (2 сбн,1 приб)* 3, 11 сбн, 1 приб = 42 
6 ряд - (3 сбн, 1 приб)* 2, 9 сбн, (3 сбн, 1 приб)* 3, 12 сбн, 1 приб = 48 
7 ряд - 48 сбн 
8 ряд - 4 сбн, 1 приб, 23 сбн, 1 приб, 19 сбн = 50 
9 ряд - 50 сбн 
10 ряд - 5 сбн, 1 приб, 24 сбн, 1 приб, 19 сбн = 52 
11 ряд - 52 сбн 
12 ряд - 6 сбн, 1 приб, 25 сбн, 1 приб, 19 сбн = 54 (фото 2) 
13 - 17 ряды /5 рядов/ - 54 сбн 
18 ряд - 6 сбн, 1 уб, 25 сбн, 1 уб, 19 сбн = 52 
19 ряд - 52 сбн 
20 ряд - 6 сбн, 1 уб, 24 сбн, 1 уб, 18 сбн = 50 
21 ряд - 50 ряд 
22 ряд - 6 сбн, 1 уб, 23 сбн, 1 уб, 17 сбн = 48 
23 ряд - 48 сбн (фото 3) 
24 ряд - (1 уб, 3 сбн)* 3, 9 сбн, (1 уб, 3 сбн)* 3, 9 сбн = 42 
25 ряд - (1 уб, 2 сбн)* 3, 9 сбн, (1 уб, 2 сбн)* 3, 9 сбн = 36 
26 ряд - (1 уб, 1 сбн)* 3, 9 сбн, (1 уб, 1 сбн)* 3, 9 сбн = 30 
27 ряд - (3 уб, 9 сбн)* 2 = 24 
28 ряд - 2 уб, 6 сбн, 3 уб, 6 сбн, 1 уб = 18 (фото 4, 5), набить, продолжаем вязать ... 
 
ТУЛОВИЩЕ: 
29, 30 ряды - 18 сбн 
31 ряд - (2 сбн, 1 приб)* 6 = 24 
32 ряд - 24 сбн 
33 ряд - (5 сбн, 1 приб)* 4 = 28 
34 - 45 ряды /12 рядов/ - 28 сбн (фото 6) 
46 ряд - 26 сбн, поставить маркер - это новое начало ряда (фото 7), набить, продолжаем вязать... 
 
ЛЕВАЯ НОГА: 
47 ряд - 13 сбн, замкнуть в круг в отмеченной маркером петле (фото 8) 
48 - 57 ряды /10 рядов/ - 13 сбн (фото 9) 
58 ряд - 6 уб, 1 сбн = 7, набить, петли стянуть. (фото 10, 11) 
 
ПРАВАЯ НОГА: 
на оставшихся 13 петлях туловища аналогично связать вторую ногу (фото 12-14) 
 
РУКИ: 2 штуки 
1 ряд - 5 сбн в КА 
2 ряд - 5 приб = 10 
3 - 17 ряды /15 рядов/ - 10 сбн 
18 ряд - (3 сбн, 1 уб)* 2 = 8, слегка набить, сложить пополам, провязать вместе оба края 3 сбн и 1 сс, оставить кончик нити для пришивания. 
Обе ручки пришить к телу, оставив 2 ряда для шеи. (фото 15 - 21) 
Оформить личико, сделать волосы. 
 
ПЛАТЬЕ: цвета А и В 
Вяжем поворотными рядами со сменой цвета, подробное фото-объяснение в файле 
1 ряд - 30 вп 
2 ряд - поворот, 1 впп, 4 сбн, 1 приб, 5 сбн, 1 приб, 4 сбн, смена цвета, 1 сбн, (1 приб, 5 сбн)* 2, 1 приб, 1 сбн = 35 (фото 5) 
 
3 ряд - поворот, 1 впп, 5 сбн, 1 приб, 6 сбн, 1 приб, 5 сбн, смена цвета, 1 сбн, (1 приб, 6 сбн)* 2, 1 приб, 1 сбн = 40 
 
4 ряд - поворот, 1 впп, 3 сбн, (1 приб, 7 сбн)* 2, 1 приб, смена цвета, 7 сбн, 1 приб, 7 сбн, 1 приб, 4 сбн = 45 
 
5 ряд - поворот, 1 впп, 2 сбн, (1 приб, 8 сбн)* 2, 1 приб, 1 сбн, смена цвета, 7 сбн, 1 приб, 8 сбн, 1 приб, 6 сбн = 50 (фото 6) 
 
6 ряд - поворот, 1 впп, 25 сбн, смена цвета, 25 сбн = 50 
 
7 ряд - поворот, 1 впп, 7 сбн, 3 вп, проп. 11 сбн, 7 сбн, смена цвета, 7 сбн, 3 вп, проп. 11 сбн, 7 сбн; (фото 7, 8) 
 
8 ряд - поворот, 1 впп, 3 сбн, 1 приб, 3 сбн по вп, 3 сбн, 1 приб, 3 сбн, смена цвета, 3 сбн, 1 приб, 3 сбн, 3 сбн по вп, 3 сбн, 1 приб, 3 сбн =38 (фото 9) 
 
9 ряд - поворот, 1 впп, 19 сбн, смена цвета, 19 сбн = 38 
10 ряд - поворот, 1 впп, 9 сбн, 1 приб, 9 сбн, смена цвета, 19 сбн = 39 
11 ряд - поворот, 1 впп, 9 сбн, 1 приб, 9 сбн, смена цвета, 20 сбн = 40 
12 ряд - поворот, 1 впп, 20 сбн, смена цвета, 20 сбн = 40 
13 ряд - поворот, 1 впп, 14 сбн, 1 приб, 5 сбн, смена цвета, 20 сбн = 41 
14 ряд - поворот, 1 впп, 14 сбн, 1 приб, 5 сбн, смена цвета, 21 сбн = 42 
15 ряд - поворот, 1 впп, 21 сбн, смена цвета, 21 сбн, соединить с 1 петлей ряда = 42 (фото 10) 
16 ряд - поворот, 1 впп, 4 сбн, 1 приб, 16 сбн, смена цвета, 21 сбн, соединить с 1 петлей ряда = 43 
17 ряд - поворот, 1 впп, 6 сбн, 1 приб, 14 сбн, смена цвета, 22 сбн, 1 сс = 44 
18 ряд - поворот, 1 впп, 22 сбн, смена цвета, 22 сбн, 1 сс = 44 
19 ряд - поворот, 1 впп, 3 сбн, 1 приб, 18 сбн, смена цвета, 22 сбн, 1 сс = 45 (фото 11) 
20 ряд - поворот, 1 впп, 18 сбн, 1 приб, 3 сбн, смена цвета, 23 сбн, 1 сс = 46 
21, 22 ряды - поворот, 1 впп, 23 сбн, смена цвета, 23 сбн, 1 сс = 46 
23 ряд - поворот, 1 впп, 12 сбн, 1 приб, 10 сбн, смена цвета, 23 сбн, 1 сс = 47 
24 ряд - поворот, 1 впп, 13 сбн, 1 приб, 9 сбн, смена цвета, 24 сбн, 1 сс = 48 
25, 26 ряды - поворот, 1 впп, 24 сбн, смена цвета, 24 сбн, 1 сс = 48 
 
Оформить платьице по своему вкусу. Как завязать галстук Подушка яблоко Мастерим с детьми: ракета из бумаги Школа рисования для малышей. Рисуем технику. Прекрасные нежные розы выполненные из фоамирана. Полностью ручная работа. Идея для сада: сборная клумба Творчество из камушков Забавные поделки с детьми Пирожное баунти.

Ингредиенты: 
 
Бисквитное тесто (на 14 "половинок"): 
- 4 яйца 
- 80 г муки 
- 20 г порошка какао 
- 20 г картофельного крахмала 
- 120 г сахара 
- 1/2 ч.л. разрыхлителя 
 
начинка: 
- 6-7 cт. л. манки 
- 500 мл молока 
- 200 г сахара 
- 200 г слив. масла 
- щепотка ванилина 
- 250 кокосовой стружки 
 
украшение для пирожных: 
- 150 мл молока 
- пакетик "взбитых сливок" 
- какао 
- сахарные бусинки 
 
Приготовление: 
 
1. Замесить тесто на бисквит: 
на бисквит из четырех яиц потребуется 120 грамм сахара, 80 грамм муки, 20 грамм крахмала для легкости и 20 грамм какао-порошка. 
Просеять в миску муку, крахмал и какао, 1/2 ч.л. разрыхлителя 
Перемешать хорошенько. 
Белки взбить до жестких пиков и добавить две столовых ложки сахара. 
Взбить еще хорошо до плотности и блеска. 
Желтки взбить с тремя столовыми ложками сахара в пышную светлую массу. Добавить к белкам. 
Осторожно перемешать. 
Всыпать мучную смесь через сито. 
Аккуратно перемешать до однородности, поддевая ложкой снизу вверх. 
2. Формочки обильно смазать раст. маслом и выложить в них по 1,5 ст. л. теста, разравнивая верх. 
3. Выпекать до готовности (проверить зубочисткой). 
4. Начинку я приготовила раньше, так что до сборки пирожных она успела хорошенько застыть в холодильнике. 
5. Для этого нужно вскипятить молоко и сварить в нем манку, добавив ванилин. 
6. Снять с огня и взбить венчиком, чтобы не было комков. 
7. Размягченное масло взбить с сахаром добела и ввести в слегка остывшую манную кашу. 
8. Взбить миксером и добавить кокосовую стружку, всё время взбивая. Поставить в холодильник. 
9. Бисквиты остудить. Брать по ~2 ст. л. начинки (я брала руками и скатывала их в шарик, потом делала лепешку) и ложила её на бисквитик. Затем приплюснуть сверху вторым бисквитом и аккуратно заглаживать тот крем, что вылез. 
10. Для украшения можно использовать то, что вам угодно. Я воспользовалась пакетированным заменителем сливок, приготовив их так, как было указано на упаковке: в 150 мл холодного молока добавить содержимое пакета и взбить миксером до загустения. 
11. Обмазать сливками, притрусить верх какао и украсить бусинками. Вязаные игрушки Милые текстильные котики :) Выкройка. Доброе утро 😊 Творчество из камушков 👉 ПОДПИШИСЬ на [club162413575|Своими руками. Новинки] Вы ищете новое хобби, которое будет развивать вас? 🤗

Откройте для себя мир каллиграфии не выходя из дома! Такое искусство успокаивает и вдохновляет, а также тренирует концентрацию. 6 недель курса помогут достичь уверенного уровня, даже если Вы не занимались этим раньше. ✍🏻

Условия участия, программа и прочие подробности: https://vk.com/app5898182_-131396122#u=371102&s=145628 Объемная вышивка Пасхальные трафареты. Идеи для росписи пасхальных яиц Деревья из бисера [club174310051|Полезные советы] - Уникaльная и самaя полезная стрaница 🙋 
 
[club174310051|ПOДПИШИСЬ!👈🏻] Пасхальные пряники Вязаные игрушки из контейнеров от киндер сюрприза Шьем очаровательную косыночку на лето для девочки Букет роз из конфет и гофрированной бумаги Шьем волка по мотивам мультфильма «Жил был пёс» Как сделать одуванчик из джутового шпагата. 
 
Нам понадобится: 
шпагат (я использую именно такой, в бобинах, шлифованный); 
клей «Титан»; 
пенопластовый шарик диаметром 1 см (можно скрутить из фольги, слепить из теста и т. д.); 
проволока (можно любую, какая у вас есть, у меня — в бумажной оплетке); 
кусачки (для проволоки); 
ножницы; 
толстая игла (я ею наношу клей, после использования хорошо очищается, в отличие от деревянных шпажек и зубочисток). Вязаные игрушки Полочки из деревянных паллет Группа для настоящих рукодельниц!✂ 
================================ 
[club173274189|❤СВОИМИ РУКАМИ. РУКОДЕЛИЕ❤] 
================================ 
Подпишись👇🏻 Коты. Выкройка. Нарисуй рисунок, не отрывая руки Текстильные кошечки. Выкройка Переделка джинсов в супер жилетку Сумочки из трикотажной пряжи Вязаные куколки от Elenы Kocherovой 
 
НОЖКИ. 
Основной цвет. 
1)в кольцо амигуруми 5 СБН 
2) приб., 1 СБН, приб., 1 СБн, приб. = 8 СБН 
3)-17) 8 СБН (15 рядов) 
Связать 2 ножки. На первой ноге нить оборвать. На второй не обрывать. 
Набить ножки (довольно плотно). 
 
ТЕЛО. 
Основной цвет. 
1)Соединяем две ножки вместе. Между ног 12 в.п. 8 СБН по одной ножке, 12 СБН по в.п., 8 СБН по второй ножке, 12 СБН по в.п. Всего 40 СБН. 
2) 42 СБН (прибавки по бокам) 
3) 42 СБН 
4) 44 СБН (прибавки по бокам) 
5)-10) 44 СБН (6 рядов) 
11) 40 СБН (убавки по бокам, спереди и сзади) 
12)-15) 40 СБН 
16) 36 СБН (убавки по бокам, спереди и сзади) 
17)-19) 36 СБН 
20) (4 СБН, уб.) 6 раз = 30 СБН 
21) 30 СБН 
22) (3 СБН, уб.) 6 раз = 24 СБН 
23) 24 СБН 
24) (2 СБН, уб.) 6 раз = 18 СБН 
Цвет тела. 
25)-26) 18 СБН 
Набить тело. В шею вставить 3 ватные палочки. 
 
ГОЛОВА. 
Цвет тела. 
27) (2 СБН, приб.) 6 раз = 24 СБН 
28) (3 СБН, приб.) 6 раз = 30 СБН 
29) ( 4 СБН, приб.) 6 раз = 36 СБН 
30) (5 СБН, приб.) 6 раз = 42 СБН 
31) (6 СБН, приб.) 6 раз = 48 СБН 
32) (7 СБН, приб.) 6 раз = 54 СБН 
33)-42) 54 СБН (10 рядов) 
43) (7 СБН, уб.) 6 раз = 48 СБН 
44) (6 СБН, уб.) 6 раз = 42СБН 
45) (5 СБН, уб.) 6 раз = 36 СБН 
46) (4 СБН, уб.) 6 раз = 30 СБН 
47) (3 СБН, уб.) 6 раз = 24 СБН 
48) (2 СБН, уб.) 6 раз = 18 СБН 
Набить голову. 
49) (1 СБН. уб.) 6 раз = 12 СБН 
50) 6 уб. = 6 СБН 
Отверстие стянуть. 
 
РУЧКИ. 
Цвет тела. 
1) в кольцо амигуруми 5 СБН 
2) приб, 4 СБН = 6 СБН 
3) 6 СБН 
4) 3 ССН с одной вершиной, 5 СБН = 6 СБН - для одной руки 
5 СБН, 3 ССН с одной вершиной = 6 СБН - для другой руки 
5) 6 СБН 
Основной цвет. 
6) 6 СБН 
7) приб., 5 СБН = 7 СБН 
8)-25) 7 СБН (18 рядов) 
Набить ручку. 
26) 2 уб. 
Верх ручек закрыть 3 СБН. 
 
КАПЮШОН. 
Основной цвет. 
1) в кольцо амигуруми 6 СБН 
2) 6 приб. = 12 СБН 
3) (1 СБН, приб.) 6 раз = 18 СБН 
4) (2 СБН, приб.) 6 раз = 24 СБН 
5) (3 СБН, приб.) 6 раз = 30 СБН 
6) ( 4 СБН, приб.) 6 раз = 36 СБН 
7) (5 СБН, приб.) 6 раз = 42 СБН 
8) (6 СБН, приб.) 6 раз = 48 СБН 
9) (7 СБН, приб.) 6 раз = 54 СБН 
10)-21) 54 СБН 
 
ШИШЕЧКИ. 
Основной цвет. 
1) в кольцо амигуруми 6 СБН 
2) 6 приб. = 12 СБН 
3) (1 СБН, приб.) 6 раз = 18 СБН 
4) (2 СБН, приб.) 6 раз = 24 СБН 
5)-7) 24 СБН 
 
ШАРФ. 
Вязать произвольно крючком или спицами. Я вязала 6 в.п., 3 ССН, поворот. Далее поворотными рядами 2 в.п., 3 ССН до нужной длины. На концах можно сделать бахрому. 
 
СБОРКА И ОФОРМЛЕНИЕЮ 
1) Пришить ручки. 
2) Надеть капюшон на голову и пришить сзади в районе шеи. 
3) На капюшон пришить шишечки. 
4) Пришить или приклеить глазки. 
5) Повязать шарфик Вышивка гладью "Амстердам" Вышитые лентами цветы Вяжем пупса крючком Видеоурок: шляпка крючком из пряжи «Косичка» ✍🏻 Хочешь научиться красиво писать? 
✔ Хочешь исправить почерк? 
✔ Хочешь найти занятие для состояния гармонии на душе?

📚 Программа разработана специально для учеников без начальных знаний и практики в каллиграфии, простым и понятным языком. 

👇🏻 Нажимай на кнопку, чтобы узнать подробности
https://vk.com/app5898182_-178294069#s=230925&utm_source=id166&utm_medium=video2&utm_campaign=fil&utm_content=market Выкройка пляжной туники Бесподобные фаршированные шампиньоны под сырной корочкой.

Ингредиенты: 
 
Шампиньоны — 16 шт. 
Картофель — 3 шт. 
Сыр — 150 г 
Майонез — 3 ст. л. 
Чеснок — 3 зубчика 
Зелень — по вкусу 
Соль — по вкусу 
Перец — по вкусу 
 
Приготовление: 
 
1. Подготовить ингредиенты. 
 
2. Отварить картофель. 
 
3. Натереть вареный картофель на мелкой терке. Натереть сыр. Чеснок пропустить через пресс. Мелко порезать зелень. 
 
4. Смешать картошку, зелень, чеснок и сыр. Посолить и поперчить по вкусу. Добавить майонез. 
 
5. У грибов аккуратно удалить ножки, оставив только шляпки. 
 
6. Наполнить грибные шляпки приготовленной начинкой. 
 
7. Отправить в разогретую до 200 ºC духовку на 15 минут. Простой и красивый бантик крючком.

Такие бантики можно использовать в качестве аппликации и украшения не только пинеток, но и других детских вещичек: кофточек, шапок, платьев. 
 
Понадобится. 
Крючок № 5 
Пряжа средней толщины (160-200 м. в 100 г.) 
Примерный размер бантика: 6,5 х 4 см 
 
в.п. — воздушная петля 
С2Н — столбик с двумя накидами 
СС — соединительный столбик 

 
Описание. 
Сделать волшебное кольцо. 
 
5 в.п., 3 С2Н в кольцо, 5 в.п., СС в кольцо, 5 в.п., 3 С2Н в кольцо, 5 в.п., СС в кольцо. 
 
Отрезать нить, оставив конец длиной 10-15 см. Протянуть конец нити через самую первую в.п., закрепить нить. 
Затянуть волшебное кольцо, несколько раз обмотать центр бантика оставшимся концом, закрепить нить сзади бантика. Спрятать конец. 
 
Связанный крючком бантик 
Вместо обмотки пряжей, можно связать цепочку из в.п. 
 
Для изменения размера бантика можно увеличивать или уменьшать количество С2Н, вязать вместо С2Н столбики с одним накидом, выполняя по 3-4 в.п. подъема и «спуска» к кольцу. Милые зайки :) Выкройка Создаем пасхальную курочку без шитья Доброе утро 😊 Кофейное сердце с окошком. Мастер-класс Шьем яркое летнее платье для девочки «Клубничное мороженое»  Шьем яркую текстильную сумочку на лето. Мастер-класс Пальчиковый театр Теремок. Автор Татьяна Черномырдина 👑 РУКОДЕЛЬНИЦЫ! 👑 ЛИКВИДАЦИЯ ТОВАРОВ!

✔ 5200 товаров для рукоделия со скидками до 70%!!!

КУПИТЬ можно в магазине по ссылке http://vk.cc/4HUmyZ

Заказ от 1 штуки.

🚀 Доставка по всей России. Оплата при получении. Цветы из капрона Пасхальные пряники Декоративные деревянные полочки Панно из ниток и гвоздей Совушки на ветке Вязаные мокасины на подошве Шьем сумочку-домик для девочки Котики из фетра Детский пуловер реглан «Крошка Енот» Сочетание цветов в одежде Вязаные развивающие игрушки Идеи для дачи из бетонных блоков Шьем пуфик-мешок Вкуснейший пирог с яйцами и зеленым луком в мультиварке.

Ингредиенты: 
 
Для теста: 
 
Яйцо — 4 шт. 
Соль — по вкусу 
Мука — 7 ст. л. 
Сода — ⅓ ч. л. 
Сметана — 200 г 
Майонез — 1 ст. л. 
 
Для начинки: 
 
Яйцо вареное — 6 шт. 
Зеленый лук — 150 г 
Соль — по вкусу 
 
Приготовление: 
 
1. Яйца взбить с солью. Добавить сметану и майонез. Перемешать. Добавить соду и муку. Замесить тесто. 
 
 
2. Для начинки: порезать вареные яйца, зеленый лук. Посолить и перемешать. 
 
 
3. Половину теста вылить в смазанную маслом чашу мультиварки. Выложить начинку и сверху распределить 
 
остальное тесто. Готовить в режиме "Выпечка" 50 минут. За 5-7 минут до окончания пирог можно перевернуть. 
 
 
4. Готовый пирог вынуть с помощью чаши для варки на пару. Остудить. Вкусный пирог с яйцами и зеленым луком можно подавать к столу. 🌱 Набор для выращивания грибов: "Домашняя грибница"
🌱Приобрести со скидкой 50% 👉 https://vk.cc/9dLSnj
✨Собирайте урожай благородных грибов у себя дома!
✔ Необходимая вещь для каждого любителя грибов
✔ Не требует специальных условий, все необходимое есть в комплекте
✔ Без специфических запахов в квартире 
✔ Первые грибы уже через 4-5 недель
✔Больше 5 кг урожая с одного набора
🍄 Стоимость одно кг выращенных вами грибов менее 10 рублей!
👍 Специальная цена при покупке набора из нескольких коробок
Купить 👉 https://vk.cc/9dLSnj Выкройки котиков Пасхальные открытки 😃Рисуешь или хочешь научиться? 
🎨Курс "Скетчинг для начинающих". 
❤Обучим рисовать маркерами и акварелью. 
✔Мы гарантируем, что Вы научитесь рисовать! 

Узнай программу курса и все подробности, кликни по ссылке ниже👇
https://vk.com/app5898182_-154690848 
https://vk.com/app5898182_-154690848 
https://vk.com/app5898182_-154690848 Детские вязаные коврики Вышивка гладью "Париж" [club43162227|Невероятная идея подарка💥] Корзинка из газетных трубочек. Мастер-класс. Съемные воротнички. Идеи с выкройками. Акварельные балерины Доброе утро 😊 Как сделать большие цветы из бумаги 👉 ПОДПИШИСЬ на [club162413575|Своими руками. Новинки] Игровая палатка вигвам для деток Где недорого и с экономией поесть в Петербурге. 
 
Места без пафоса, но с сытными порциями и приятными ценами существуют в разных районах города. В том числе и Центральном. Берите на заметку: 
 
1. Финская столовая на Большой... 
[club88229325|Читать продолжение в источнике...] Новая жизнь старой детской кроватки Сочетание цветов в одежде Поделки из киндер сюрпризов Божья коровка. Мастерим вместе с детьми Шкатулка из коробки от чипсов Текстильные корзинки Креативная вышивка 😍1000 советов и рукодельных секретов в сообществе счастливых рукодельниц 
======================== 
[club173273974|❤ЗАНЯТНОЕ РУКОДЕЛИЕ❤] 
======================== 
Присоединяйся к нам и будь счастлива 👍🏻 Текстильные котики Делаем своими руками подарочную коробочку всего за 3 минуты Панно из гвоздей и ниток Пасхальные открытки Шьем подушку-сидушку на стул за 2 часа Идеи для фотосессии Создаем объемную цифру 4 на день рождения Разные поделки из одноразовых стаканчиков 