Выбираем лучший альбом месяца. В опросе №1 
 
Адаптация - "Оруэлл" → https://vk.com/wall-27089186_52418 
Изумрудный город - "Мир не прервётся" → https://vk.com/wall-27089186_52531 
Fатальный Выстрел - "Живые" → https://vk.com/wall-27089186_52527 
Стахановцы - "Время добыть угля" → https://vk.com/wall-27089186_52786 
Wildways - "Нью Скул" → https://vk.com/wall-27089186_52587 
Би-2 - "Нечётный воин 4. Часть 2" → https://vk.com/wall-27089186_52777 
АЗЪ - "Маньяк Вранья" → https://vk.com/wall-27089186_52557 
Before I Die - "Мизантроп. Глава II. Утерянные Записи" → https://vk.com/wall-27089186_52583 
Яма - "Девять песен" → https://vk.com/wall-27089186_52721 

#опрос_лучший_релиз_месяца@rusrock_news [club7912522|Рэтор] - альбом "Дух борьбы"

Heavy Metal 
Барнаул / Россия
12.04.2019 [club52614388|Gain Over] - сингл "Поехали!"

Alternative Rock
Москва / Россия
12.04.2019 [club19483697|Majestic] - сингл "Лимб"

Trash Metal
Москва / Россия
12.04.2019 [club26050917|Ассура] - сингл "Там Далеко"

Rock
Тула / Россия
12.04.2019 [club110202505|SlaveNET] - сингл "Километры Холодных Снов"

Modern Metal / Cyber Metal
Санкт-Петербург / Россия
12.04.19 Продолжаем праздновать День Космонавтики!
[club623260|Please Wait...] - ЕР "Спутник" 
 
Rock
Москва , Волгоград / Россия
12.04.19 [club225666|Би-2]& Prague Metropolitan Symphonic Orchestra - Vol. 3 - альбом "Out Now"

Rock
Москва / Россия
12.04.2019 [id98544911|Федор Ладошкин] -сингл "Вечер"

Punk
Сургут, Россия
06.04.2019 [club325|Эпидемия] - видеоальбом "Книга Золотого Дракона"

Power Metal
Москва / Россия
10.04.2019 [club138897|Игрушки] - альбом "Время пришло"

Pop Punk / Alternative Rock
Москва / Россия
11.04.2019 [club12884426|The Dead President] - видеоклип "Время SKA" (feat. Славик Дацент "Distemper")

Ska-Core
Москва / Россия
05.04.2019 [club38587538|Quant] - видеоклип "Еле Успели"

Rock
Нягань / Россия
09.04.2019 С Днём Космонавтики!
[club60450550|Наш Километр] - сингл "Юра, прости... "
Soft Rock
Воронеж / Россия
Скачать: https://bit.ly/2G4UI2H [club82691197|Рваные Раны] - видеоклип "Палата №6"

Punk
Москва / Россия
10.04.2019 [club35781753|Бабанцуйка] - сингл "Секрет"

Pop Rock
Минск / Беларусь
10.04.2019 [club336146|Тени Свободы] - альбом "Нелепость"

Rock / Punk 
Москва / Россия
11.04.2019 [club3123578|Косогор] - альбом "постRenaissance"

Melodic Metal / Symfonic Metal
Москва / Россия
10.04.2019 [club102061|Znaki] - альбом "Видеть больше"

Rock
Москва / Россия
10.04.2019  [club180473441|Vesna Vulović] - дебютный сингл "Я - Ветер"

Progressive Rock
Санкт-Петербург, Россия.

Состав: Артём Бахчурин - основной вокал, бас-гитара; Дмитрий Климов - соло и ритм-гитара; Максим Алёшин - ударные, бэк-вокал.

Мы Vesna Vulović и эта песня - лишь один пример того, что мы можем. Грядёт альбом, на котором каждый найдёт что-то себе по вкусу. [club447277|Руна] - сингл "Сердце Каина"

Punk
Пермь / Россия
09.04.2019 [club63155889|Машмет] - видеоклип "Мертвая река"

Rock
Воронеж / Россия
10.04.2019 [club6584400|/10] — сингл «Просто так отдать» 
 
Acoustic Rock
Санкт-Петербург / Россия 
Дебют. Первая студийная работа
07.04.2019 [club40116624|10-я октава] - сингл "Как всегда"

Punk
Могилёв / Беларусь
01.04.2019 [club109142874|Vólan] - ЕР "Место"

Dark Hardcore / Post-Metal
Москва / Россия
08.04.2019 [club174635915|Вязкость: Медиум] - альбом "Накрывает"

Art Rock / Alternative Rock
Москва / Россия
04.04.2019 [club1097989|МоNолиза] - альбом "Ни Черта"

Pop Rock
Санкт-Петербург / Россия
10.04.2019  [club11811382|Детский Царь] - сингл "Бей в Бубен"

Art Rock
Казань / Россия
07.04.2019 [club51585497|F|band] - альбом "#околопанкрока"

Punk
Егорьевск / Россия
05.04.2019 [club49848|Три Пули] - сингл "Ну как тебе такое, Илан Маск?"

Ska Punk
Санкт-Петербург / Россия
08.04.2019 [club24294289|Магелланово Облако] - ЕР "Вибрация"

Soft Rock
Москва / Россия
29.03.2019 [club77953694|Карта] - видеоклип "Сексуальный зверь"

Rock
Москва / Россия
08.04.2019 [club75435610|Ocean Of My Dreams] - сингл "На грани Распада"

Alternative Metal
Минск / Беларусь
03.04.2019 [club172018001|Ruined mind] - альбом "At heart"

Post-black Metal / Instrumental 
Тула / Россия
08.04.2019 [club25939421|Break My Fucking Sky] — композиция «The letters we'll never send» (2019)

Instrumental / Post-Rock
Самара / Нижний Новгород (Россия)  [club177303044|Reality Confusion] - Дебютный EP "Inspiration"

Instrumental / Piano / Rock
Брянск, Россия
06.04.2019 [club123490812|Индиалог] - альбом "Любить тебя, Гореть и Пить"

Alternative Rock
Рязань / Россия
06.04.2019 [club2559099|Урсус] - видеоклип "Вечность"

Hard Rock
Санкт-Петербург / Россия
07.04.2019 [club160671380|Влажность] - альбом "Воспитание"

Punk / Alternative
Москва / Россия
07.04.2019 [club94916377|Ригганы] - ЕР "Призраки"

Rock
Санкт-Петербург / Россия
25.03.2019 [club165638265|Бонги и Клайд] - ЕР "Яд"

Psychedelic / Garage Rock
Москва / Россия
25.03.2019 [club36763656|Спящие Радары] - ЕР "Все Зря"

Mall Emo
Новосибирск / Россия
04.04.2019 [club65283358|Проект 4.0.4] - альбом "Стой до конца"

Pop Rock / Alternative Rock
Минск / Беларусь
07.04.2019 [club168521982|Шаверма с Говном] - сингл "Трещина Ксеноморфа"

Mathcore
Санкт-Петербург / Россия
01.04.2019 [club43343704|Аффинаж] - сингл "Ни За Что Не Скажу Тебе Прощай"

Rock
Санкт-Петербург / Россия
21.03.2019 [club149366815|Красный Полупрозрачный Человек] - ЕР "Солнце падает вверх" 
 
Grunge
Москва / Россия
04.04.2019 [club65539806|Меchtа] - видеоклип и сингл "Юность"

Rock
Санкт-Петербург / Россия
01.04.2019 [club12911612|Альянс] - сингл "Без Тебя"

Pop Rock
Москва, Россия
02.04.2019 [club106729635|Увула] -  альбом "Нам остается лишь ждать"

Surf Rock
Санкт-Петербург / Россия
02.04.2019 [club3516641|Код Елизара] - сингл "Контрреволюция"

Post-Punk
Кингисепп / Россия
04.04.2019 [club1100575|Обе-Рек] - сингл "Домой"

Rock
Москва / Россия
06.04.2019 [id82530558|Николай Юдин] - сингл "Кочевые Рассветы"

Acoustic Rock / Avantgarde 
Рига, Латвия 
06.04.2019 [club165477511|Схима] - видеоклип "Бесконечное Утро"

Rock
Санкт-Петербург / Россия
06.04.2019 [club4998914|Корабль призрак] - сингл "Девятый вал"

Heavy Metal / Melodic Metal
Воронеж, Россия
06.04.2019 [club171976584|Мойпапаробот] - ЕР "Мой Папа Робот"

Punk / Grunge
Житомир / Украина
04.04.2019 [club164412499|22.7] - сингл "Лёд" 

Metal
 Санкт-Петербург, Россия
05.04.2019 [id98544911|Федор Ладошкин] - ЕР "Беляш, Вентилятор, Магазин"

Punk
Сургут, Россия
06.04.2019 [club95670267|Provocación] - ЕР "В пяти шагах от..."

Punk / Hardcore
Краснодарск, Россия
03.04.2019 [club23984612|Corarea] - ЕР "Мерцание"

Metalcore
Ростов-на-Дону
04.04.2019 [club163822866|OSTROVA] - ЕР "Нам не запретить мечтать, Сторона А" 
 
Pop Rock 
Санкт-Петербург, Россия 
05.04.2019 [club66811890|Бумажные Тигры] - ЕР "Мечты"

Post-Punk
Томск, Россия
04.04.2019 [club180572683|18 Ножевых Ранений] - видеоклип "18 Ножевых Ранений"

HardCore
Харьков / Украина
03.04.2019 Лучший релиз месяца по результатам голосования vk.com/RusRock_News: 
 
Nagart - "Секрет оборотня" → https://vk.com/wall-27089186_52110 
 
Список со всеми альбомами месяца здесь: https://vk.com/topic-27089186_39113017
 
1. Nagart - "Секрет оборотня" → https://vk.com/wall-27089186_52110 
2. Strike - "Культ" → https://vk.com/wall-27089186_52297 
3. Агидель - "Река и Камень" → https://vk.com/wall-27089186_52275 
4. Помни Имя Свое - "Имярек" → https://vk.com/wall-27089186_52240 
5. Быковский/Страйк - "Между небом и землей" → https://vk.com/wall-27089186_52259 
6. Rarka - "Larazapala" → https://vk.com/wall-27089186_52289 
7. Петля Пристрастия - "Гул" → https://vk.com/wall-27089186_52234 
8. Сразу Май - "Сигналы" → https://vk.com/wall-27089186_52302 
 9. Цитадель - "Звездный путь" → https://vk.com/wall-27089186_52217 

В качестве приза помещаем обложку альбома на аватар нашей страницы до конца месяца и заносим релиз в «Аллею славы»: vk.com/page-27089186_44615185 
 
#лучшее@rusrock_news #опрос_лучший_релиз_месяца@rusrock_news [club174167503|БеZСкобок] - дебютный видеоклип "Случайная любовь"

Pop-punk / Ska-punk
Тула / Россия
05.04.2019 [club54226451|Ploho] - альбом "Пыль"

Post-Punk
Новосибирск, Россия
05.04.2019 [club110903614|Балдин] и [id53776649|Ерохина] - ЕР "Родинки" 
 
Pop Rock 
Рыбинск, Москва / Россия 
01.04.2019 [club37718544|Кувалда] - альбом "Армия Тьмы"

Thrash Metal
Спас-Клепики, Россия
05.04.2019 [club22067921|СДНХ] - альбом "Бэдтриптих с Животными"

Nu-metal / Grindcore / Experimental
Казань, Россия
04.04.2019 [club67334330|КоМА БЕАТРИС] - альбом "Потребности"

Alternative Rock / Grunge / Pop Rock
Москва, Россия
29.03.2019 [club172324813|Rotten Toten] - альбом "Ужин у Вдовы"

Punk 
Москва, Россия
04.04.2019 [club154176369|Falsegiver] - альбом "Горький финал"

Deathcore / Nu-metalcore
Ярославль, Россия
04.04.2019 [club266816|My Vendetta ] - сингл "Не рай"

Alternative Rock 
Москва, Россия
03.04.2019 [club9726761|Эскалада] - видеоклип "Один"

Melodic Metal
Ростов-на-Дону, Россия
01.04.2019 [club336146|Тени Свободы] - видеоклип "Всё сбудется"

Rock
Москва, Россия
04.04.2019 [club48470567|Хоробрита] - альбом "Кости"

 Alternative Rock / Experimental
Москва, Россия
01.04.2019 [club128222390|Arrkaim] - видеоклип "Услышанный. Ч.1"

Hardcore
Омск, Россия
31.03.2019 [club85397388|2-й СОРТ] - cover альбом "Исковерканные 2"

Post-Punk / Electronic Experimental 
Санкт-Петербург / Екатеринбург, Россия
01.04.2019 [club155282364|cats among us] - "cats among us" (2019)

Indie Rock / Emo
Москва, Россия  [club43229811|Sacramento] - видеоклип "Море"

Indie Rock
Ковров,Россия
01.04.2019 [club9812|Слот] - видеоклип "200 кВт"

Alternative Metal / Nu metal
Москва, Россия
01.04.2019 [club76929480|Даарика] - альбом "Пожалуйста"

Pop Rock
Москва, Россия
02.04.2019 [club125991705|ПИШИ НА СТЕНАХ] - ЕР "Лицемер" 

Punk / Hardcore / Alternative Metal
Волгоград, Россия
02.04.2019 [club49848|Три Пули] - сингл "Альпинист-Онанист"

Rap Rock
Санкт-Петербург, Россия
1.04.2019 [club63588708|Шоколадный Торт] - видеоклип "Безразлично"

Pop Punk / Alternative
Санкт-Петербург, Россия
02.04.2019 [club1496421|"Глобальное Потепление"] - альбом "Выходи из Соцсети"

Reggae / Ska
Волгоград, Россия
01.04.2019  [club106288606|Вопрос] - сингл "Пинг-понг" 
 
Pop Rock 
Фрязино, Россия
02.04.2019 [club65697121|Gryphon Rush] - сингл "Ёрмунганд"

Hard Rock / Heavy Metal
Москва, Россия
24.03.2019 [club11190526|Electricjezus] - альбом "Смех"

Doom Metal
Дмитров, Россия
01.04.2019 [club2196084|Kruger] - альбом "Свирепый пёс"

Thrash Metal / Heavy Metal
Москва, Россия
02.04.2019 [club607291|Эпитафия] - видеоклип "Жестокие игры"

Modern Metal
Москва, Россия
01.04.2019 [club131593582|mold band] - альбом "Вторично"

Punk / Alternative
Москва, Россия
01.04.2019 [club180155874|Бисер] - сингл "Смотри в меня"

Punk
Барнаул, Россия
28.03.2019 [club84051738|Парижский Sin'дром] - видеоклип "На дне" (по лезвию) Live 2019

Rock
Благовещенск, Россия
31.03.2019 [club70194390|let me] — сингл «Быть знаменитым некрасиво» (2019)

Spoken Word / Melodic Hardcore / Post-Rock / Emo
Калуга, Россия

Слова: Борис Пастернак
Звук: Алексей Сыроваров
Обложка: Irina Buldova
Скачать: https://yadi.sk/d/8oxzN-JjjPcPFg
Поддержать: https://letmeklg.bandcamp.com/

https://vk.com/letmeklg [club4946661|Легендарные Пластилиновые Ноги] — видеоклип «Апрель» (2019)

Rock
Одесса, Украина

Режиссер, оператор и автор идеи - Максим Пшеничный
В ролях - Мария Грабина и Легендарные Пластилиновые Ноги

Андрей Басов - слова, музыка, вокал, гитара
Олег Митрофанов - гитара
Александр Дробинкин - бас-гитара
Алексей Ткачевский - ударные

Запись: г. Одесса студия звукозаписи DarkBlue Records
Сведение и мастеринг: spk music production
Инженеры записи: Алексей Нагорных, Андрей Мухамет
Редакция, сведение и мастеринг: Алексей Нагорных

Благодарим за помощь: Виктора Иванова, Викторию Басову, Асю Жукову и Екатерину Боровцову.

Аудио: https://soundcloud.com/lpnbasov/aprel

Песня выйдет на новом альбоме ЛПН "Любовь Побеждает Ненависть"
Краудфандинг на выпуск альбома: https://planeta.ru/campaigns/lpn_2019

Ближайшие концерты с презентацией альбома:
19 апреля - Днепр, арт-центр Квартира
20 апреля - Харьков, арт-клуб БарМалевич
21 апреля - Киев, Mezzanine
25 апреля - Одесса, More Music Club 

https://vk.com/lpnmusic 