Меня хотят посадить за критику Читы adidas Originals x wings+horns NMD_R2

старая цена: 15990 adidas.ru
новая цена: 6494 (SpecialOffer35) http://fas.st/vGyeL

размеры: RU 39, 40-41, 42 adidas by Raf Simons Stan Smith

старая цена: 20990 adidas.ru
новая цена: 9094 (SpecialOffer35) http://fas.st/5rGmrT

размеры: RU 37-38, 39, 40,5 adidas Originals x Daniel Arsham New York

старая цена: 13997 adidas.ru
новая цена: 6494 (SpecialOffer35) http://fas.st/GngrI_

размеры: RU 40 adidas by Alexander Wang BBall

старая цена: 18990 adidas.ru
новая цена: 11044 (SpecialOffer35) http://fas.st/0OcVYl

размеры: RU 37,5, 42,5-43 Pharrell Williams x adidas Crazy BYW LVL X

старая цена: 19990 adidas.ru
новая цена: 11044 (SpecialOffer35) http://fas.st/kMzin_

размеры: RU 37-39, 40-41, 42-43, 44-45, 46 🔥🔥🔥Как уже писал сегодня, людям с большой лапой, не пропускаем сейл:

Много годных найков и джорданов: http://fas.st/1sfCOC

И дополнительный промокод dealfinder10 НА ВСЕ Adidas x Alexander Wang AW Puff Trainer

старая цена: 16990 adidas.ru
новая цена: 11043 (SpecialOffer35) http://fas.st/HNiJM

размеры: RU 42, 43, 44,5 HBBZ9QT5RW7-M Adidas Originals EQT Support Adv Primeknit

старая цена: 9990 adidas.ru
новая цена: 4392 (MC9G-GH6C-ZXTB-94G95) http://fas.st/lRbS1G

размеры: RU 42 Adidas Deerupt Runner 'Tan'

старая цена: 7990 adidas.ru
новая цена: 3992 (MC9G-GH6C-ZXTB-94G95) http://fas.st/XYFwt

размеры: RU 38,5, 46 Alphabounce Beyond 'Raw Grey'

старая цена: 7990 adidas.ru
новая цена: 3192 (MC9G-GH6C-ZXTB-94G95) http://fas.st/cg11o

размеры: RU 37, 38, 42-43 Adidas Originals Kamanda 01 'Crystal White'

старая цена: 9990 adidas.ru
новая цена: 5992 (MC9G-GH6C-ZXTB-94G95) http://fas.st/8o4Sz3

размеры: RU 40, 41, 42, 44-44,5, 46-46,5 Jordan DNA

старая цена: 7690 + 650 slamdunk.su
новая цена: 4761 + 650 (dealfinder10) http://fas.st/KyJ2V

размеры: US 12,5, 14, 15 Air Jordan 1 Mid PREM

старая цена: 9190 + 650 slamdunk.su
новая цена: 5661 + 650 (dealfinder10) http://fas.st/OB0gB

размеры: US 15 Air Jordan 1 Rebel XX

старая цена: 10990 + 650 slamdunk.su
новая цена: 6291 + 650 (dealfinder10) http://fas.st/fe0BoH

размеры: RU 43 🔥🔥🔥ЛУЧШИЙ СКИДОЧНЫЙ АГРЕГАТОР NAVISALE.RU ЗАФИКСИРОВАЛ ИЗБЫТОК ЖЫРА СО СЛЭМДАНКА (там вшит наш промо)

navisale.ru
navisale.ru
navisale.ru adidas Yung-96

старая цена: 7490 asos.com
новая цена: 3790 http://fas.st/1n-oGL

размеры: EU 38, 39,5-40,5, 42-42,5, 43,5-44,5, 45,5-46, 47,5 adidas Originals POD-S3.1

старая цена: 7290 asos.com
новая цена: 4390 http://fas.st/-tJ2r

размеры: EU 38, 39,5-40,5, 42-42,5, 43,5-44,5, 45,5-46, 47,5 adidas Temper Run

старая цена: 9390 asos.com
новая цена: 5690 http://fas.st/jV62RT

размеры: EU 38, 39,5-40,5, 41,5-42,5, 43,5-44,5, 45,5-46, 47,5 Puma x Lama Jouni Thunder

старая цена: 9990 asos.com
новая цена: 6990 http://fas.st/e1Fvwy

размеры: EU 42 Puma Thunder Electric

старая цена: 8990 asos.com
новая цена: 6390 http://fas.st/OH-_f

размеры: EU 38, 39, 40,5, 42 Reebok Daytona DMX MU

старая цена: 8590 asos.com
новая цена: 4290 http://fas.st/u2bQfu

размеры: EU 38, 39, 40-41, 42-43 Adidas Originals Temper Run 'Shock Purple'

старая цена: 10130 + 1 741 size.co.uk
новая цена: 2870 + 1 741 (промо: NEWSZN15 ) https://bit.ly/2SyRs6y

размеры: UK 6, 7-12 Puma Cell Venom Reflective

старая цена: 8021 + 1 741 size.co.uk
новая цена: 3229 + 1 741 (промо: NEWSZN15 ) https://bit.ly/2IcAFl9

размеры: UK 6, 7, 8-11, 12 New Balance 608

старая цена: 5065 + 1 741 size.co.uk
новая цена: 2512 + 1 741 (промо: NEWSZN15) https://bit.ly/2D4ZDOT

размеры: UK 12,5 Size? x Asics Gel-Saga 'Balloon Fiesta'

старая цена: 7602 + 1 741 size.co.uk
новая цена: 2512 + 1 741 (промо: NEWSZN15) https://bit.ly/2VJBy7X

размеры: UK 7, 8, 9-10, 12 Dr. Martens 1460 Pascal Spitfire

старая цена: 13496 eastdane.com
новая цена: 5398 + 1 297 (промо: EVENT19) http://fas.st/buUhz

размеры: US 13 Puma Thunder Spectra 'Black and Red'

старая цена: 7712 + 1 297 eastdane.com
новая цена: 4318 + 1 297 (промо: EVENT19) http://fas.st/Ow_MDj

размеры: US 10, 12, 13 Reebok DMX Run 10

старая цена: 10509 + 1500 farfetch.com
новая цена: 3678 + 1500 (промо: FF2019) http://fas.st/7Ftc6P

размеры: US 8 Nike EXP-X14 SE 'Just Do It Pack'

старая цена: 9237 + 1500 farfetch.com
новая цена: 3233 + 1500 (промо: FF2019) http://fas.st/1_xH6

размеры: US 9,5 Adidas Originals I-5923 'Core Black'

старая цена: 8892 + 1500 farfetch.com
новая цена: 3112 + 1500 (промо: FF2019) http://fas.st/UIiUT

размеры: UK 10,5 Nike Air Footscape Mid Utility DM 'Wolf Grey'

старая цена: 10300 + 1787 urbanindustry.co.uk
новая цена: 6960 + 1787 https://bit.ly/2Krjtdt

размеры: UK 6, 7-9, 10-11 Adidas x Alexander Wang AW HIKE LO

старая цена: 13750 yoox.com
новая цена: 9625 (автоматически в корзине) http://fas.st/bYbsxn

размеры: EU 38-38,5, 39,5-40,5, 42-42,5, 44-44,5, 46-46,5, 47,5-48 Asics Gel-Lyte MT Zip

старая цена: 10790 brandshop.ru
новая цена: 5400 https://bit.ly/2UrWL9I

размеры: EU 40,5, 41,5-42,5, 43,5-44,5, 46-46,5 Nike Air Max 95 Premium

старая цена: 11690 brandshop.ru
новая цена: 5850 https://bit.ly/2D8YK8e

размеры: EU 42 ну тупо для элиты Lamoda EXHRF6NQMQ-M 2к бонусов, хоть что-то Calvin Klein 205W39NYC Carlos

старая цена: 38457 barneyswarehouse.com
новая цена: 8693 + 3 103 https://bit.ly/2VC93ss

размеры: US 10-11, 12-12,5 Reebok Pump Supreme ULTK

старая цена: 10990 reebok.ru
новая цена: 4792 (автоматически в корзине) https://bit.ly/2OwgGRG

размеры: EU 41, 42-43 Calvin Klein 205W39NYC Carlos

старая цена: 38133 barneyswarehouse.com
новая цена: 8693 + 3 103 https://bit.ly/2GeK7SL

размеры: US 11, 12 Nike Air Force 1 Jester XX

старая цена: 8290 yoox.com
новая цена: 6600 http://fas.st/2nW5k

размеры: EU 42,5 Puma X Daily Paper Court Platform K

старая цена: 9000 yoox.com
новая цена: 5450 http://fas.st/FUBT2

размеры: EU 42, 43 Hi-Tec HTS Badwater 157 ABC FLOW

старая цена: 7250 yoox.com
новая цена: 4450 http://fas.st/z-6BxD

размеры: EU 42 Nike Air Safari 'Olive Desert'

старая цена: 7490 yoox.com
новая цена: 4700 http://fas.st/z5QlS

размеры: EU 40-40,5 Stampd x Puma Clyde 'Cameo Brown'

старая цена: 7500 yoox.com
новая цена: 4400 http://fas.st/NOSepY

размеры: EU 39, 46 Adidas Originals NMD_R1 STLT PK

старая цена: 14040 yoox.com
новая цена: 5300 http://fas.st/1JeQa

размеры: EU 41,5-42,5, 43,5, 44,5 adidas Ultraboost Uncaged

старая цена: 13790 sneakerhead.ru
новая цена: 6546 (FIRST5) http://fas.st/zGUxa

размеры: RU 39,5, 41 adidas Originals Samba OG W

старая цена: 6990 sneakerhead.ru
новая цена: 3981 (FIRST5) http://fas.st/DoGLa

размеры: RU 38, 39,5-40, 41-41,5 New Balance 580 'Full Reflective'

старая цена: 10500 yoox.com
новая цена: 5250 http://fas.st/-xPN7

размеры: EU 40,5, 41,5-43, 44-45, 46,5 Adidas Originals Swift Run 'Raw Green'

старая цена: 6750 yoox.com
новая цена: 3700 http://fas.st/KfmWU

размеры: EU 44 Puma Cell Venom

старая цена: 9000 yoox.com
новая цена: 6750 (-25% автоматически в корзине) http://fas.st/9sSKL

размеры: EU 40, 42, 45 Puma Tsugi Jun Cubism

старая цена: 8250 yoox.com
новая цена: 5475 (-25% автоматически в корзине) http://fas.st/qibg7

размеры: EU 39, 40-41, 42-43, 44-45, 46 Puma x Shantell Martin Suede

старая цена: 5750 yoox.com
новая цена: 4025 (-30% автоматически в корзине) http://fas.st/iEC0nd

размеры: EU 38-39, 40-41 adidas EQT Support Ultra

старая цена: 14990 kupivip.ru
новая цена: 5391 (при оплате картой на сайте) http://fas.st/wfTxA

размеры: RU 44 🔥🔥🔥Ребрендинг на Купивипе

В честь чего оч хорошие скидосы на Томми

Чекаем: http://fas.st/dAqcS  Puma RS-X Trophy 'White Bronze'

старая цена: 8990 rendez-vous.ru
новая цена: 6290 (промо: CITI2000; + ваша скидка PRIVILÈGE) http://fas.st/kwZLG

размеры: EU 40-41, 42-43, 44-45, 46 Reebok Aztrek 'Cobalt Yellow'

старая цена: 6790 asos.com
новая цена: 4790 http://fas.st/-w_Pq

размеры: EU 41, 42-43, 44-45,5, 47 Reebok Pyro OG

старая цена: 7390 asos.com
новая цена: 4490 http://fas.st/OU876k

размеры: EU 38, 39, 40, 41, 42-43, 44-44,5, 45,5, 47 Puma Cell Endura Patent 98

старая цена: 9312 + 1 690 size.co.uk
новая цена: 3957 + 1 690 (промо: SZAPRIL15) https://bit.ly/2I8OmRM

размеры: UK 7,5-11, 12 Puma RS-100

старая цена: 6344 + 1 690 size.co.uk
новая цена: 1797 + 1 690 (промо: SZAPRIL15) https://bit.ly/2Urnva8

размеры: UK 6, 7, 8-10, 11 Adidas Originals Yung-96 'True Blue'

старая цена: 7190 + 1 690 size.co.uk
новая цена: 3234 + 1 690 (промо: SZAPRIL15) https://bit.ly/2KlBhXw

размеры: UK 6, 7-11,5 Adidas Originals Deerupt Runner 'Blue'

старая цена: 7990 adidas.ru
новая цена: 3992 (MC9G-GH6C-ZXTB-94G95) http://fas.st/95ftt

размеры: RU 38-39, 40-41, 42, 46 Puma Thunder 4 Life 'Surf The Web'

старая цена: 7785 + 1 297 eastdane.com
новая цена: 4359 + 1 297 (промо: EVENT19) http://fas.st/s4rJM

размеры: US 8-9, 10-11, 12, 13 Adidas x Alexander Wang BBall White

старая цена: 16867 eastdane.com
новая цена: 10795 + 1 297 (промо: EVENT19) http://fas.st/p1PM8g

размеры: UK 6, 7,5-8, 9,5-10, 11 Puma Thunder Spectra 'Burgundy'

старая цена: 7785 + 1 297 eastdane.com
новая цена: 3736 + 1 297 (промо: EVENT19) http://fas.st/Vkgq9N

размеры: US 8-8,5, 12, 13 Puma RS-X Core

старая цена: 8990 rendez-vous.ru
новая цена: 6290 (промо: CITI2000; + ваша скидка PRIVILÈGE) http://fas.st/-Lb0_

размеры: EU 40-41, 42-43, 44-45, 46, 47, 48 Забирайте)  Так, еще раз 

Какие новые категории хотите на navisale.ru?

Футболки? Джинсы? Кепки? Ловите промо код! Мож кому сгодиться Casio G-SHOCK x Asics Gel-Mai Knit

старая цена: 12470 + 1 094 luisaviaroma.com
новая цена: 4676 + 1 094 (промо: WE25) https://bit.ly/2WVeq6i

размеры: EU 44, 45 Asics x Mita Sneakers Gel-Kayano Trainer 'Trico'

старая цена: 9188 + 1 094 luisaviaroma.com
новая цена: 3445 + 1 094 (промо: WE25) https://bit.ly/2UEgpyB

размеры: EU 40, 41,5-42 Asics Gel-Lyte XT x YMC

старая цена: 8532 + 1 094 luisaviaroma.com
новая цена: 3199 + 1 094 (промо: WE25) https://bit.ly/2Vxb3T0

размеры: EU 39,5-40,5, 42-42,5 adidas Campus

старая цена: 7390 adidas.ru
новая цена: 2792 (MC9G-GH6C-ZXTB-94G95) http://fas.st/ZusPJj

размеры: RU 40,5 adidas Deerupt Runner

старая цена: 7990 adidas.ru
новая цена: 3992 (MC9G-GH6C-ZXTB-94G95) http://fas.st/KsHkuX

размеры: RU 44,5 adidas Busenitz Cordura

старая цена: 6990 adidas.ru
новая цена: 3992 (MC9G-GH6C-ZXTB-94G95) http://fas.st/PvIiA

размеры: RU 38,5, 40, 41, 44 Dragon Ball Z x adidas EQT Support Mid ADV PK 'Super Shenron'

старая цена: 12990 adidas.ru
новая цена: 7992 (MC9G-GH6C-ZXTB-94G95) http://fas.st/lQy83l

размеры: RU 37,5-39, 40-41 adidas Samba RM

старая цена: 9990 adidas.ru
новая цена: 5992 (MC9G-GH6C-ZXTB-94G95) http://fas.st/wzxTg7

размеры: RU 42 adidas A.R. Trainer

старая цена: 7490 adidas.ru
новая цена: 4392 (MC9G-GH6C-ZXTB-94G95) http://fas.st/CDlZO

размеры: RU 40 adidas NMD_R1

старая цена: 9990 adidas.ru
новая цена: 5992 (MC9G-GH6C-ZXTB-94G95) http://fas.st/t8ajvf

размеры: RU 39, 40,5 adidas Adistar Comp

старая цена: 9990 adidas.ru
новая цена: 3992 (MC9G-GH6C-ZXTB-94G95) http://fas.st/c-vlB

размеры: RU 40 adidas Matchcourt CF

старая цена: 6390 adidas.ru
новая цена: 3752 (MC9G-GH6C-ZXTB-94G95) http://fas.st/NXf5Fn

размеры: RU 43  Nike Air Max Plus Premium

старая цена: 11546 + 1500 farfetch.com
новая цена: 5254 + 1500 (FF2019) http://fas.st/pCMeWs

размеры: US 8,5 adidas Marathon X 5923 'Never Made'

старая цена: 8150 + 1500 farfetch.com
новая цена: 4564 + 1500 (FF2019) http://fas.st/TT-5Yz

размеры: UK 6,5, 8, 9,5, 10,5-11 adidas EQT Support 91/18

старая цена: 11546 + 1500 farfetch.com
новая цена: 5254 + 1500 (FF2019) http://fas.st/MPZbK

размеры: UK 10-11,5 Puma Thunder Spectra

старая цена: 8829 + 1500 farfetch.com
новая цена: 4945 + 1500 (FF2019) http://fas.st/sKGPt

размеры: UK 7,5-8 Nike Air Force Max CB

старая цена: 10256 + 1500 farfetch.com
новая цена: 5744 + 1500 (FF2019) http://fas.st/iana0Q

размеры: US 10 Nike Air Max Plus PRM

старая цена: 11546 + 1500 farfetch.com
новая цена: 5658 + 1500 (FF2019) http://fas.st/3UH65X

размеры: US 8,5 Reebok x Horween Leather Co. Club C 85

старая цена: 11250 + 1500 farfetch.com
новая цена: 2750 + 1500 (FF2019) http://fas.st/Pf8Sm4

размеры: US 8,5 Reebok DMX Run 10

старая цена: 10509 + 1500 farfetch.com
новая цена: 3679 + 1500 (FF2019) http://fas.st/vNeDn9

размеры: US 7,5-8 adidas Originals Samba Recon LT

старая цена: 10188 + 1500 farfetch.com
новая цена: 3566 + 1500 (FF2019) http://fas.st/EOxu6

размеры: UK 6,5-8, 10,5 Ловите кому надо Подгончик самым быстрым:)
Сегодня последний день!
3700
Белые монархи: http://fas.st/ssnwU5 
Чёрные монархи: http://fas.st/VPYavy 
Скетчерсы: http://fas.st/F8GSpI Nike Air Max 90 'Just Do It Pack' Bright Crimson

старая цена: 10490 + 1000 yoox.com
новая цена: 6900 + 1000 http://fas.st/yTrD4

размеры: EU 40,5-41, 42 Mizuno x Club 75 Court Select

старая цена: 9355 + 1 704 footpatrol.com
новая цена: 4252 + 1 704 https://bit.ly/2UlLpnC

размеры: UK 6, 7, 8, 9, 11 Vans Varix WC 'Staple'

старая цена: 8504 + 1 704 footpatrol.com
новая цена: 2551 + 1 704 https://bit.ly/2D30L5P

размеры: UK 11 