  Нажми на свой зодиака 
и узнай кому ты нравишься 💕 
[club161979351|😴Овен]          [club166246052|😛Телец]          [club161979401|❤Стрелец] 
[club156006735|😂Рак]          [club172708040|😚Весы]          [club156006735|😳Скорпион] 
[club166246052|😎Лев]          [club177229892|😱Дева]          [club159421826|😙Близнецы] 
[club161979351|😈Козерог]          [club172708040|😍Водолей]          [club159421826|😜Рыбы]                                                                                                  